name;wikipedia
Acul du Sud;https://fr.wikipedia.org/wiki/Acul_du_Sud
Artibonite (fleuve);https://fr.wikipedia.org/wiki/Artibonite_(fleuve)
Grande Rivière de Nippes;https://fr.wikipedia.org/wiki/Grande_Rivi%C3%A8re_de_Nippes
Grande Rivière de Saint-Marc;https://fr.wikipedia.org/wiki/Grande_Rivi%C3%A8re_de_Saint-Marc
Grande Rivière du Nord;https://fr.wikipedia.org/wiki/Grande-Rivi%C3%A8re-du-Nord
Pedernales (rivière);https://fr.wikipedia.org/wiki/Pedernales_(rivi%C3%A8re)
Petite Rivière de Jacmel;https://fr.wikipedia.org/wiki/Petite_Rivi%C3%A8re_de_Jacmel
Petite Rivière de Saint-Marc;https://fr.wikipedia.org/wiki/Petite_Rivi%C3%A8re_de_Saint-Marc
Rivière Bainet;https://fr.wikipedia.org/wiki/Rivi%C3%A8re_Bainet
Rivière Bâtarde;https://fr.wikipedia.org/wiki/Rivi%C3%A8re_B%C3%A2tarde#:~:text=La%20rivi%C3%A8re%20B%C3%A2tarde%20prend%20sa,route%20Soleil%20N%C2%B09).
Rivière Blanche (département de l'Artibonite);https://fr.wikipedia.org/wiki/Rivi%C3%A8re_Blanche_(d%C3%A9partement_de_l%27Artibonite)
Rivière Blanche (département de l'Ouest);https://fr.wikipedia.org/wiki/Rivi%C3%A8re_Blanche_(d%C3%A9partement_de_l%27Ouest)
Rivière Boucan Carré;https://fr.wikipedia.org/wiki/Boucan-Carr%C3%A9
Rivière Bouyaha;https://fr.wikipedia.org/wiki/Rivi%C3%A8re_Bouyaha
Rivière Bretelle;https://fr.wikipedia.org/wiki/Rivi%C3%A8re_Bretelle
Rivière Canot;https://fr.wikipedia.org/wiki/Rivi%C3%A8re_Canot
Rivière Courjolle;https://fr.wikipedia.org/wiki/Rivi%C3%A8re_Courjolle
Rivière de Capotille;https://fr.wikipedia.org/wiki/Rivi%C3%A8re_de_Capotille
Rivière de Cavaillon;https://fr.wikipedia.org/wiki/Rivi%C3%A8re_de_Cavaillon
Rivière de Grand Goâve;https://fr.wikipedia.org/wiki/Rivi%C3%A8re_de_Grand_Go%C3%A2ve
Rivière de la Cosse;https://fr.wikipedia.org/wiki/Rivi%C3%A8re_de_la_Cosse
Rivière de la Grande-Anse;https://fr.wikipedia.org/wiki/Rivi%C3%A8re_de_la_Grande-Anse
Rivière de la Guinaudée;https://fr.wikipedia.org/wiki/Rivi%C3%A8re_de_la_Guinaud%C3%A9e
Rivière de Montrouis;https://fr.wikipedia.org/wiki/Rivi%C3%A8re_de_Montrouis
Rivière de Port-Margot;https://fr.wikipedia.org/wiki/Rivi%C3%A8re_de_Port-Margot
Rivière des Baradères;https://fr.wikipedia.org/wiki/Rivi%C3%A8re_des_Barad%C3%A8res
Rivière des Côtes de Fer;https://fr.wikipedia.org/wiki/Rivi%C3%A8re_des_C%C3%B4tes_de_Fer
Rivière des Matheux;https://fr.wikipedia.org/wiki/Rivi%C3%A8re_des_Matheux
Rivière des Orangers;https://fr.wikipedia.org/wiki/Rivi%C3%A8re_des_Orangers
Rivière des Roseaux;https://fr.wikipedia.org/wiki/Rivi%C3%A8re_des_Roseaux
Rivière des Ténèbres;https://fr.wikipedia.org/wiki/Rivi%C3%A8re_des_T%C3%A9n%C3%A8bres#:~:text=La%20rivi%C3%A8re%20des%20T%C3%A9n%C3%A8bres%20est,sous%2Daffluent%20du%20fleuve%20Artibonite.
Rivière du Massacre;https://fr.wikipedia.org/wiki/Rivi%C3%A8re_du_Massacre
Rivière Fer à Cheval;https://fr.wikipedia.org/wiki/Rivi%C3%A8re_Fer_%C3%A0_Cheval
Rivière Froide (département de l'Ouest);https://fr.wikipedia.org/wiki/Rivi%C3%A8re_Froide_(d%C3%A9partement_de_l%27Ouest)
Rivière Gauche;https://fr.wikipedia.org/wiki/Rivi%C3%A8re_Gauche
Rivière Gens de Nantes;https://fr.wikipedia.org/wiki/Rivi%C3%A8re_Gens_de_Nantes
Rivière Grise;https://fr.wikipedia.org/wiki/Rivi%C3%A8re_Grise
Rivière Guayamouc;https://fr.wikipedia.org/wiki/Rivi%C3%A8re_Guayamouc
Rivière Haut-du-Cap;https://fr.wikipedia.org/wiki/Rivi%C3%A8re_Haut-du-Cap
Rivière l'Estère;https://fr.wikipedia.org/wiki/Rivi%C3%A8re_l%27Est%C3%A8re
Rivière La Gosseline;https://fr.wikipedia.org/wiki/Rivi%C3%A8re_La_Gosseline
Rivière La Quinte;https://fr.wikipedia.org/wiki/Rivi%C3%A8re_La_Quinte
Rivière Lamatry;https://fr.wikipedia.org/wiki/Rivi%C3%A8re_Lamatry
Rivière Libon;https://fr.wikipedia.org/wiki/Rivi%C3%A8re_Libon
Rivière Limbé;https://fr.wikipedia.org/wiki/Rivi%C3%A8re_Limb%C3%A9
Rivière Lociane;https://fr.wikipedia.org/wiki/Rivi%C3%A8re_Lociane
Rivière Macassia;https://fr.wikipedia.org/wiki/Rivi%C3%A8re_Macassia
Rivière Marion;https://fr.wikipedia.org/wiki/Rivi%C3%A8re_Marion
Rivière Momance;https://fr.wikipedia.org/wiki/Rivi%C3%A8re_Momance
Rivière Moustiques;https://fr.wikipedia.org/wiki/Rivi%C3%A8re_Moustiques
Rivière Soliette;https://fr.wikipedia.org/wiki/Rivi%C3%A8re_Soliette
Rivière Torbeck;https://fr.wikipedia.org/wiki/Rivi%C3%A8re_Torbeck
Rivière Torcelle;https://fr.wikipedia.org/wiki/Rivi%C3%A8re_Torcelle
Rivière Victorine;https://fr.wikipedia.org/wiki/Rivi%C3%A8re_Victorine
Rivière Voldrogue;https://fr.wikipedia.org/wiki/Rivi%C3%A8re_Voldrogue
Trois Rivières;https://fr.wikipedia.org/wiki/Trois_Rivi%C3%A8res