group; youtube
7ème FLOTTE;https://www.youtube.com/watch?v=AYpmGU9tjCk
7 STARS BAND;https://www.youtube.com/results?search_query=7 STARS BAND
ABEL REMY;https://www.youtube.com/results?search_query=ABEL REMY
ACCOLADE de NEW YORK;https://www.youtube.com/watch?v=3Hixr6GElC4
ALAN CAVE + ZIN;https://www.youtube.com/watch?v=QPvCjdPe9JY
ALBERT CHANCY;https://www.youtube.com/results?search_query=ALBERT+CHANCY
ALEX E. VOLCY;https://www.youtube.com/results?search_query=ALEX E. VOLCY
ALIX JACQUES;https://www.youtube.com/results?search_query=ALIX+JACQUES
ALTHIERY DORIVAL;https://www.youtube.com/results?search_query=ALTHIERY+DORIVAL
AMBASSADEURS DE JESUS CHRIST;https://www.youtube.com/results?search_query=AMBASSADEURS DE JESUS CHRIST
AMOS COULANGES;https://www.youtube.com/results?search_query=AMOS COULANGES
ANDERSON CAMEAU;https://www.youtube.com/results?search_query=ANDERSON CAMEAU
ANDRE CHARLES;https://www.youtube.com/results?search_query=ANDRE CHARLES
ANDRE PIPIRITE;https://www.youtube.com/results?search_query=ANDRE PIPIRITE
ANDRE TOUSSAINT;https://www.youtube.com/results?search_query=ANDRE TOUSSAINT
ANNA PIERRE;https://www.youtube.com/results?search_query=ANNA PIERRE
ANSYTO;https://www.youtube.com/results?search_query=ANSYTO
ANTHONY PHELPS;https://www.youtube.com/results?search_query=ANTHONY PHELPS
APOCALYPSE;https://www.youtube.com/results?search_query=APOCALYPSE
ARNAUD POINVIL;https://www.youtube.com/results?search_query=ARNAUD POINVIL
ARNOLD FORTUNE&TANDEM;https://www.youtube.com/results?search_query=ARNOLD FORTUNE&TANDEM
ASSADE FRANCOEUR;https://www.youtube.com/results?search_query=ASSADE FRANCOEUR
ATIS INDEPANDAN;https://www.youtube.com/results?search_query=ATIS INDEPANDAN
AYIZAN;https://www.youtube.com/results?search_query=AYIZAN
AZAKA;https://www.youtube.com/results?search_query=AZAKA
BAJY;https://www.youtube.com/results?search_query=BAJY
BAND of the REPUBLIC;https://www.youtube.com/results?search_query=BAND of the REPUBLIC
BANDE du REPUBLIQUE;https://www.youtube.com/results?search_query=BANDE du REPUBLIQUE
BARBARA GUILLAUME;https://www.youtube.com/results?search_query=BARBARA GUILLAUME
BAZOUKA;https://www.youtube.com/results?search_query=BAZOUKA
BEETHOVA OBAS;https://www.youtube.com/results?search_query=BEETHOVA OBAS
BEKEN;https://www.youtube.com/results?search_query=BEKEN
BIG ONE;https://www.youtube.com/results?search_query=BIG ONE
BLACK ORIGINAL;https://www.youtube.com/results?search_query=BLACK ORIGINAL
BLACK PEOPLE D'HAÏTI;https://www.youtube.com/results?search_query=BLACK PEOPLE D'HAÏTI
BOSSA COMBO;https://www.youtube.com/results?search_query=BOSSA COMBO
BOSSA COMBO - LES BLOUSOMS VERTS;https://www.youtube.com/results?search_query=BOSSA COMBO - LES BLOUSOMS VERTS
BOUKAN DJAY;https://www.youtube.com/results?search_query=BOUKAN DJAY
BOUKMAN EKSPERYANS;https://www.youtube.com/results?search_query=BOUKMAN EKSPERYANS
BOULO;https://www.youtube.com/results?search_query=BOULO
BOUT TONTON;https://www.youtube.com/results?search_query=BOUT TONTON
BUZZ;https://www.youtube.com/results?search_query=BUZZ
C. M. FORCE;https://www.youtube.com/results?search_query=C. M. FORCE
CAP all STARS;https://www.youtube.com/results?search_query=CAP all STARS
CAPRICORNE all STARS;https://www.youtube.com/results?search_query=CAPRICORNE all STARS
CARIBBEAN all STARS;https://www.youtube.com/results?search_query=CARIBBEAN all STARS
CARIBBEAN STARS;https://www.youtube.com/results?search_query=CARIBBEAN STARS
CARLITO COUPÉ;https://www.youtube.com/results?search_query=CARLITO COUPÉ
CARMIN BICHOTTE;https://www.youtube.com/results?search_query=CARMIN BICHOTTE
CAROLE;https://www.youtube.com/results?search_query=CAROLE
CELESTAR ORCHESTRA;https://www.youtube.com/results?search_query=CELESTAR ORCHESTRA
CHANEL 10;https://www.youtube.com/results?search_query=CHANEL 10
CHANNEL 10;https://www.youtube.com/results?search_query=CHANNEL 10
CHARLEMAGNE;https://www.youtube.com/results?search_query=CHARLEMAGNE
 PIERRE-NOËL;https://www.youtube.com/results?search_query= PIERRE-NOËL
CHARLES ADOLPHE;https://www.youtube.com/results?search_query=CHARLES ADOLPHE
CHARLES JEAN;https://www.youtube.com/results?search_query=CHARLES JEAN
CHARLY MIKE - BASS;https://www.youtube.com/results?search_query=CHARLY MIKE - BASS
CHARMEURS D'HAÏTI;https://www.youtube.com/results?search_query=CHARMEURS D'HAÏTI
CHERY SYSTEM;https://www.youtube.com/results?search_query=CHERY SYSTEM
CHORALE des JEUNES;https://www.youtube.com/results?search_query=CHORALE des JEUNES
de la 1ère ÉGLISE BAPTISTE de PORT-au-PRINCE.;https://www.youtube.com/results?search_query=de la 1ère ÉGLISE BAPTISTE de PORT-au-PRINCE.
CHOUCHOU du NORD OUEST;https://www.youtube.com/results?search_query=CHOUCHOU du NORD OUEST
CINNA O CHARLES;https://www.youtube.com/results?search_query=CINNA O CHARLES
CLAUDE LOUISSAINT;https://www.youtube.com/results?search_query=CLAUDE LOUISSAINT
CLAUDE MONTREUIL;https://www.youtube.com/results?search_query=CLAUDE MONTREUIL
CLAUDETTE & TI PIERRE;https://www.youtube.com/results?search_query=CLAUDETTE & TI PIERRE
CLIFFORD SYLVAIN;https://www.youtube.com/results?search_query=CLIFFORD SYLVAIN
COLÉ COLÉ BAND;https://www.youtube.com/results?search_query=COLÉ COLÉ BAND
COLETTE JACQUES;https://www.youtube.com/results?search_query=COLETTE JACQUES
COMBITE EXPRESS;https://www.youtube.com/results?search_query=COMBITE EXPRESS
COMPAS EXPRESS;https://www.youtube.com/results?search_query=COMPAS EXPRESS
COMPAS PLUS BAND;https://www.youtube.com/results?search_query=COMPAS PLUS BAND
CONNECTION;https://www.youtube.com/results?search_query=CONNECTION
CORNELIA;https://www.youtube.com/results?search_query=CORNELIA
COULOUTE ANDRÉ MANES;https://www.youtube.com/results?search_query=COULOUTE ANDRÉ MANES
COUPÉ CLOUÉ;https://www.youtube.com/results?search_query=COUPÉ CLOUÉ
CRÉOLE SOUL BROTHERS;https://www.youtube.com/results?search_query=CRÉOLE SOUL BROTHERS
CRYSTAL;https://www.youtube.com/results?search_query=CRYSTAL
CRYSTAL SECURE;https://www.youtube.com/results?search_query=CRYSTAL SECURE
CUARTETO ASTORIA;https://www.youtube.com/results?search_query=CUARTETO ASTORIA
CYCLONE;https://www.youtube.com/results?search_query=CYCLONE
DADOU PASQUET;https://www.youtube.com/results?search_query=DADOU PASQUET
DAMBALLAH \ TANA PIANO;https://www.youtube.com/results?search_query=DAMBALLAH \ TANA PIANO
DAMBALLA WEDO SINGERS;https://www.youtube.com/results?search_query=DAMBALLA WEDO SINGERS
DAMIEN DURBAN;https://www.youtube.com/results?search_query=DAMIEN DURBAN
& ADRIEN DUPUY;https://www.youtube.com/results?search_query=& ADRIEN DUPUY
DANIEL LARIVIÈRE;https://www.youtube.com/results?search_query=DANIEL LARIVIÈRE
DANIELLE THERMIDOR;https://www.youtube.com/results?search_query=DANIELLE THERMIDOR
DANNY DESHLON;https://www.youtube.com/results?search_query=DANNY DESHLON
DAVID SEXTET;https://www.youtube.com/results?search_query=DAVID SEXTET
DELTA FORCE;https://www.youtube.com/results?search_query=DELTA FORCE
DEUTZ;https://www.youtube.com/results?search_query=DEUTZ
DIGGAN & TOTO;https://www.youtube.com/results?search_query=DIGGAN & TOTO
DIGITAL EXPRESS;https://www.youtube.com/results?search_query=DIGITAL EXPRESS
DILAM;https://www.youtube.com/results?search_query=DILAM
DIMENSION;https://www.youtube.com/results?search_query=DIMENSION
DIPLOMATES II;https://www.youtube.com/results?search_query=DIPLOMATES II
DINCE ALBERT;https://www.youtube.com/results?search_query=DINCE ALBERT
DIXIE BAND;https://www.youtube.com/results?search_query=DIXIE BAND
DJAKOUT;https://www.youtube.com/results?search_query=DJAKOUT
DJAKOUT MUZIK;https://www.youtube.com/results?search_query=DJAKOUT MUZIK
DJANM;https://www.youtube.com/results?search_query=DJANM
DJET-X;https://www.youtube.com/results?search_query=DJET-X
DODOF;https://www.youtube.com/results?search_query=DODOF
DOSTANA;https://www.youtube.com/results?search_query=DOSTANA
DOUDOU BASTIDE;https://www.youtube.com/results?search_query=DOUDOU BASTIDE
DOZZ;https://www.youtube.com/results?search_query=DOZZ
DYNAMITE all STARS;https://www.youtube.com/results?search_query=DYNAMITE all STARS
ECCLESIASTE;https://www.youtube.com/results?search_query=ECCLESIASTE
ÉCHO MYSTERIEUX;https://www.youtube.com/results?search_query=ÉCHO MYSTERIEUX
ECLAIR;https://www.youtube.com/results?search_query=ECLAIR
EDDY PROPHETE;https://www.youtube.com/results?search_query=EDDY PROPHETE
EDNER GUIGNARD;https://www.youtube.com/results?search_query=EDNER GUIGNARD
EDY BRISSEAUX;https://www.youtube.com/results?search_query=EDY BRISSEAUX
EKLIPS;https://www.youtube.com/results?search_query=EKLIPS
ELECTRIC COMPA;https://www.youtube.com/results?search_query=ELECTRIC COMPA
ÉLITE ORCHESTRA;https://www.youtube.com/results?search_query=ÉLITE ORCHESTRA
ÉLYSÉE PYRONNEAU;https://www.youtube.com/results?search_query=ÉLYSÉE PYRONNEAU
EMELINE MICHEL;https://www.youtube.com/results?search_query=EMELINE MICHEL
EMILE VOLEL;https://www.youtube.com/results?search_query=EMILE VOLEL
EMMA ACHILLE PLACIDE;https://www.youtube.com/results?search_query=EMMA ACHILLE PLACIDE
EMMANUEL;https://www.youtube.com/results?search_query=EMMANUEL
EMMANUEL CASSEUS;https://www.youtube.com/results?search_query=EMMANUEL CASSEUS
EMMANUEL TOUSSAINT;https://www.youtube.com/results?search_query=EMMANUEL TOUSSAINT
EMY de PRADINES;https://www.youtube.com/results?search_query=EMY de PRADINES
ENSEMBLE aux CALEBASSES;https://www.youtube.com/results?search_query=ENSEMBLE aux CALEBASSES
ENSEMBLE ÉTOILE du SOIR;https://www.youtube.com/results?search_query=ENSEMBLE ÉTOILE du SOIR
ENSEMBLE LE PROGRÈS;https://www.youtube.com/results?search_query=ENSEMBLE LE PROGRÈS
ENSEMBLE;https://www.youtube.com/results?search_query=ENSEMBLE
MERIDIONAL des CAYES;https://www.youtube.com/results?search_query=MERIDIONAL des CAYES
ENSEMBLE NEMOURS;https://www.youtube.com/results?search_query=ENSEMBLE NEMOURS
JEAN-BAPTISTE;https://www.youtube.com/results?search_query=JEAN-BAPTISTE
ENSEMBLE SHUPA SHUPA;https://www.youtube.com/results?search_query=ENSEMBLE SHUPA SHUPA
ENSEMBLE WEBERT SICOT;https://www.youtube.com/results?search_query=ENSEMBLE WEBERT SICOT
ERICK PAUL;https://www.youtube.com/results?search_query=ERICK PAUL
ERICK PAUL;https://www.youtube.com/results?search_query=ERICK PAUL
TUCO BOUZI, DIXIE BAND;https://www.youtube.com/results?search_query=TUCO BOUZI, DIXIE BAND
ERNEST ou ERNST LAMY;https://www.youtube.com/results?search_query=ERNEST ou ERNST LAMY
ERNST MENELAS;https://www.youtube.com/results?search_query=ERNST MENELAS
ESSUD FUNGCAP;https://www.youtube.com/results?search_query=ESSUD FUNGCAP
ETNIK;https://www.youtube.com/results?search_query=ETNIK
ÉTOILE du SOIR;https://www.youtube.com/results?search_query=ÉTOILE du SOIR
EVAL MANIGAT;https://www.youtube.com/results?search_query=EVAL MANIGAT
EWALD MANIGAT;https://www.youtube.com/results?search_query=EWALD MANIGAT
EXODUS;https://www.youtube.com/results?search_query=EXODUS
EYMA ACHILLE;https://www.youtube.com/results?search_query=EYMA ACHILLE
FARAH JUSTE;https://www.youtube.com/results?search_query=FARAH JUSTE
FASAD;https://www.youtube.com/results?search_query=FASAD
FAYOLLE JEAN;https://www.youtube.com/results?search_query=FAYOLLE JEAN
FEDIA LAGUERRE;https://www.youtube.com/results?search_query=FEDIA LAGUERRE
FEDIA LAGUERRE;https://www.youtube.com/results?search_query=FEDIA LAGUERRE
FRITZNER PIERRE;https://www.youtube.com/results?search_query=FRITZNER PIERRE
FELIX GUIGNARD;https://www.youtube.com/results?search_query=FELIX GUIGNARD
FELIX GUIGNARD;https://www.youtube.com/results?search_query=FELIX GUIGNARD
et son ENSEMBLE;https://www.youtube.com/results?search_query=et son ENSEMBLE
FERDINAND DOR;https://www.youtube.com/results?search_query=FERDINAND DOR
FERERE LAGUERRE;https://www.youtube.com/results?search_query=FERERE LAGUERRE
avec CHŒUR SIMIDOR;https://www.youtube.com/results?search_query=avec CHŒUR SIMIDOR
FILIAS CUBA;https://www.youtube.com/results?search_query=FILIAS CUBA
et le COMBO des ASTRES;https://www.youtube.com/results?search_query=et le COMBO des ASTRES
FIRST CLASS;https://www.youtube.com/results?search_query=FIRST CLASS
FITO RAMEAU;https://www.youtube.com/results?search_query=FITO RAMEAU
FLAMBEAU DIVIN;https://www.youtube.com/results?search_query=FLAMBEAU DIVIN
FLASH;https://www.youtube.com/results?search_query=FLASH
FORMULA ONE;https://www.youtube.com/results?search_query=FORMULA ONE
FORMULE 10 D'HAÏTI;https://www.youtube.com/results?search_query=FORMULE 10 D'HAÏTI
FRANCISCO TROPICAL SYSTEM;https://www.youtube.com/results?search_query=FRANCISCO TROPICAL SYSTEM
FRANÇOIS DUVALIER;https://www.youtube.com/results?search_query=FRANÇOIS DUVALIER
FRANKETIENNE;https://www.youtube.com/results?search_query=FRANKETIENNE
FRANTZ CASSEUS;https://www.youtube.com/results?search_query=FRANTZ CASSEUS
FRANTZ COURTOIS;https://www.youtube.com/results?search_query=FRANTZ COURTOIS
FRANTZ DUGUE;https://www.youtube.com/results?search_query=FRANTZ DUGUE
FRANTZ PRECIO;https://www.youtube.com/results?search_query=FRANTZ PRECIO
FRERE ANTOINE PIERRE;https://www.youtube.com/results?search_query=FRERE ANTOINE PIERRE
FRERE D'JO;https://www.youtube.com/results?search_query=FRERE D'JO
FRITZ;https://www.youtube.com/results?search_query=FRITZ
FRITZ MASSAC;https://www.youtube.com/results?search_query=FRITZ MASSAC
FRITZ PEREIRA;https://www.youtube.com/results?search_query=FRITZ PEREIRA
FRITZ PIERRE;https://www.youtube.com/results?search_query=FRITZ PIERRE
G. P. EXPRESS;https://www.youtube.com/results?search_query=G. P. EXPRESS
GABY;https://www.youtube.com/results?search_query=GABY
GAÇIN GAÇON;https://www.youtube.com/results?search_query=GAÇIN GAÇON
GADOSA;https://www.youtube.com/results?search_query=GADOSA
GAMMA EXPRESS;https://www.youtube.com/results?search_query=GAMMA EXPRESS
GARDNER LALANNE;https://www.youtube.com/results?search_query=GARDNER LALANNE
GARRY;https://www.youtube.com/results?search_query=GARRY
GARY FRENCH;https://www.youtube.com/results?search_query=GARY FRENCH
GARY FRENCH;https://www.youtube.com/results?search_query=GARY FRENCH
and the TROPICAL SEXTET;https://www.youtube.com/results?search_query=and the TROPICAL SEXTET
GARY DIDIER PEREZ;https://www.youtube.com/results?search_query=GARY DIDIER PEREZ
& OZONE;https://www.youtube.com/results?search_query=& OZONE
GASSMAN PIER;https://www.youtube.com/results?search_query=GASSMAN PIER
GEMINI 1;https://www.youtube.com/results?search_query=GEMINI 1
GEMINI all STARS;https://www.youtube.com/results?search_query=GEMINI all STARS
GEORGES LOUBERT CHANCY;https://www.youtube.com/results?search_query=GEORGES LOUBERT CHANCY
GERALD MERCERON;https://www.youtube.com/results?search_query=GERALD MERCERON
GERARD BERNADEL;https://www.youtube.com/results?search_query=GERARD BERNADEL
GERARD CHARMIER;https://www.youtube.com/results?search_query=GERARD CHARMIER
GERARD DUPERVIL;https://www.youtube.com/results?search_query=GERARD DUPERVIL
GERARD PIERRE;https://www.youtube.com/results?search_query=GERARD PIERRE
GERONIMO all STARS;https://www.youtube.com/results?search_query=GERONIMO all STARS
GEROSTAR;https://www.youtube.com/results?search_query=GEROSTAR
GIFRANTS;https://www.youtube.com/results?search_query=GIFRANTS
GINA DUPERVIL;https://www.youtube.com/results?search_query=GINA DUPERVIL
GISELE;https://www.youtube.com/results?search_query=GISELE
GOLDEN LIGHT;https://www.youtube.com/results?search_query=GOLDEN LIGHT
GOSPEL FORCE;https://www.youtube.com/results?search_query=GOSPEL FORCE
GRAND ORCHESTRE;https://www.youtube.com/results?search_query=GRAND ORCHESTRE
de NEMOURS JEAN-BAPTISTE;https://www.youtube.com/results?search_query=de NEMOURS JEAN-BAPTISTE
GREGORY LAPORTE;https://www.youtube.com/results?search_query=GREGORY LAPORTE
GRENN BANBOU;https://www.youtube.com/results?search_query=GRENN BANBOU
GROUPE NEGRO SPIRITUEL;https://www.youtube.com/results?search_query=GROUPE NEGRO SPIRITUEL
GROUPE SECOURS D'EN HAUT;https://www.youtube.com/results?search_query=GROUPE SECOURS D'EN HAUT
GROUPE SOUFFLE DIVIN;https://www.youtube.com/results?search_query=GROUPE SOUFFLE DIVIN
GUERDA HECTOR;https://www.youtube.com/results?search_query=GUERDA HECTOR
GUY du ROSIER \ DUROSIER;https://www.youtube.com/results?search_query=GUY du ROSIER \ DUROSIER
GUY DUROSIER;https://www.youtube.com/results?search_query=GUY DUROSIER
rencontre SEPTENTRIONAL;https://www.youtube.com/results?search_query=rencontre SEPTENTRIONAL
GUY JEAN - GUY ROBERT JEAN;https://www.youtube.com/results?search_query=GUY JEAN - GUY ROBERT JEAN
GWO LOBO;https://www.youtube.com/results?search_query=GWO LOBO
GYPDIES;https://www.youtube.com/results?search_query=GYPDIES
HAÏTI all STARS;https://www.youtube.com/results?search_query=HAÏTI all STARS
HAÏTI CHOC COMBO;https://www.youtube.com/results?search_query=HAÏTI CHOC COMBO
HAÏTIAN JAZZ'D FABI;https://www.youtube.com/results?search_query=HAÏTIAN JAZZ'D FABI
HAÏTIAN TRIO;https://www.youtube.com/results?search_query=HAÏTIAN TRIO
HAÏTIANSTARS;https://www.youtube.com/results?search_query=HAÏTIANSTARS
HAMERTON LILAVOIS;https://www.youtube.com/results?search_query=HAMERTON LILAVOIS
HANTZ MERCIER;https://www.youtube.com/results?search_query=HANTZ MERCIER
HARRY BRICE;https://www.youtube.com/results?search_query=HARRY BRICE
HAUTE TENSION;https://www.youtube.com/results?search_query=HAUTE TENSION
HAYTIAN ORCHESTRA;https://www.youtube.com/results?search_query=HAYTIAN ORCHESTRA
HEAVENLY MELODIES;https://www.youtube.com/results?search_query=HEAVENLY MELODIES
HELPING HAND;https://www.youtube.com/results?search_query=HELPING HAND
HERMAN DESAMOURS;https://www.youtube.com/results?search_query=HERMAN DESAMOURS
HENRI;https://www.youtube.com/results?search_query=HENRI
HENRY DORVAL & FELIX St. FORT;https://www.youtube.com/results?search_query=HENRY DORVAL & FELIX St. FORT
HERBY WIDMAÏER;https://www.youtube.com/results?search_query=HERBY WIDMAÏER
HEROLD CHRISTOPHE;https://www.youtube.com/results?search_query=HEROLD CHRISTOPHE
IBO COMBO;https://www.youtube.com/results?search_query=IBO COMBO
IBO STAR BAND;https://www.youtube.com/results?search_query=IBO STAR BAND
IMGART MANIGAT;https://www.youtube.com/results?search_query=IMGART MANIGAT
INSTRUMENTAL WEBERT SICOT;https://www.youtube.com/results?search_query=INSTRUMENTAL WEBERT SICOT
 & le THORAY all STARS;https://www.youtube.com/results?search_query= & le THORAY all STARS
ISSA EL SAÏEH;https://www.youtube.com/results?search_query=ISSA EL SAÏEH
J. R. (Jean RENE);https://www.youtube.com/results?search_query=J. R. (Jean RENE)
JACKY & COMPANY;https://www.youtube.com/results?search_query=JACKY & COMPANY
JACKY AMBROISE;https://www.youtube.com/results?search_query=JACKY AMBROISE
JACQUELINE DENIS;https://www.youtube.com/results?search_query=JACQUELINE DENIS
& ZEKLE;https://www.youtube.com/results?search_query=& ZEKLE
JACQUELINE FOUCHÉ;https://www.youtube.com/results?search_query=JACQUELINE FOUCHÉ
JACQUELINE MÉHU MONTFLEURY;https://www.youtube.com/results?search_query=JACQUELINE MÉHU MONTFLEURY
JACQUES SAUVEUR JEAN;https://www.youtube.com/results?search_query=JACQUES SAUVEUR JEAN
JACQUY DUROSEAU;https://www.youtube.com/results?search_query=JACQUY DUROSEAU
JAM;https://www.youtube.com/results?search_query=JAM
JAN-JAN DESIRE;https://www.youtube.com/results?search_query=JAN-JAN DESIRE
JAN RABÈL;https://www.youtube.com/results?search_query=JAN RABÈL
JAZZ ATOMIQUE;https://www.youtube.com/results?search_query=JAZZ ATOMIQUE
JAZZ GUIGNARD;https://www.youtube.com/results?search_query=JAZZ GUIGNARD
JEAN BADETTE;https://www.youtube.com/results?search_query=JEAN BADETTE
JEAN CILIANUS;https://www.youtube.com/results?search_query=JEAN CILIANUS
JEAN DURAND;https://www.youtube.com/results?search_query=JEAN DURAND
JEAN G. LEGER;https://www.youtube.com/results?search_query=JEAN G. LEGER
JEAN ROMAIN & LAS VEGAS;https://www.youtube.com/results?search_query=JEAN ROMAIN & LAS VEGAS
JEAN-BAPTISTE NEMOURS;https://www.youtube.com/results?search_query=JEAN-BAPTISTE NEMOURS
JEANCKY;https://www.youtube.com/results?search_query=JEANCKY
JEAN-CLAUDE EUGENE;https://www.youtube.com/results?search_query=JEAN-CLAUDE EUGENE
JEAN-CLAUDE FELIX;https://www.youtube.com/results?search_query=JEAN-CLAUDE FELIX
JEAN-CLAUDE MARTINEAU;https://www.youtube.com/results?search_query=JEAN-CLAUDE MARTINEAU
JEAN-CLAUDE PETION;https://www.youtube.com/results?search_query=JEAN-CLAUDE PETION
JEAN-CLAUDE PHILIPPE;https://www.youtube.com/results?search_query=JEAN-CLAUDE PHILIPPE
et son groupe;https://www.youtube.com/results?search_query=et son groupe
JEAN-FRANÇOIS AZOR;https://www.youtube.com/results?search_query=JEAN-FRANÇOIS AZOR
JEAN-LÉON DESTINÉ;https://www.youtube.com/results?search_query=JEAN-LÉON DESTINÉ
JEAN-MICHEL DAUDIER;https://www.youtube.com/results?search_query=JEAN-MICHEL DAUDIER
JEAN SEJOUR;https://www.youtube.com/results?search_query=JEAN SEJOUR
JEPHTE GUILLAUME;https://www.youtube.com/results?search_query=JEPHTE GUILLAUME
JETHRO AUGUST;https://www.youtube.com/results?search_query=JETHRO AUGUST
JHO ARCHER;https://www.youtube.com/results?search_query=JHO ARCHER
JOCELYN HYPPOLITE;https://www.youtube.com/results?search_query=JOCELYN HYPPOLITE
JOE JACK;https://www.youtube.com/results?search_query=JOE JACK
JOE JACK rencontre;https://www.youtube.com/results?search_query=JOE JACK rencontre
FEDIA LAGUERRE;https://www.youtube.com/results?search_query=FEDIA LAGUERRE
JOE TROUILLOT;https://www.youtube.com/results?search_query=JOE TROUILLOT
JOE TROUILLOT rencontre;https://www.youtube.com/results?search_query=JOE TROUILLOT rencontre
les DIABLES du RYTHME;https://www.youtube.com/results?search_query=les DIABLES du RYTHME
JOËL + ZEKLE;https://www.youtube.com/results?search_query=JOËL + ZEKLE
JOËL THEODORE;https://www.youtube.com/results?search_query=JOËL THEODORE
JOHN STEVE BRUNACHE;https://www.youtube.com/results?search_query=JOHN STEVE BRUNACHE
JOHNNY FRANTZ TOUSSAINT;https://www.youtube.com/results?search_query=JOHNNY FRANTZ TOUSSAINT
JOSÉ TAVERNIER;https://www.youtube.com/results?search_query=JOSÉ TAVERNIER
JOSEITO;https://www.youtube.com/results?search_query=JOSEITO
JOSEPH AUGUSTIN;https://www.youtube.com/results?search_query=JOSEPH AUGUSTIN
JOSEPH DUROSEAU;https://www.youtube.com/results?search_query=JOSEPH DUROSEAU
JOSEPH RENE;https://www.youtube.com/results?search_query=JOSEPH RENE
JOVIAL TI PLUME;https://www.youtube.com/results?search_query=JOVIAL TI PLUME
JUDIN SOLO;https://www.youtube.com/results?search_query=JUDIN SOLO
JULIETTA;https://www.youtube.com/results?search_query=JULIETTA
JUSTIN ELIE;https://www.youtube.com/results?search_query=JUSTIN ELIE
JUVO COMBO;https://www.youtube.com/results?search_query=JUVO COMBO
L'AGE D' OR DES GYPSIES;https://www.youtube.com/results?search_query=L'AGE D' OR DES GYPSIES
DE PETION-VILLE;https://www.youtube.com/results?search_query=DE PETION-VILLE
L'ALPHA ET L'OMEGA;https://www.youtube.com/results?search_query=L'ALPHA ET L'OMEGA
L'ENSEMBLE " NIC " D'HAÏTI;https://www.youtube.com/results?search_query=L'ENSEMBLE " NIC " D'HAÏTI
L'ENSEMBLE DU;https://www.youtube.com/results?search_query=L'ENSEMBLE DU
RIVIERA HÔTEL D'HAÏTI;https://www.youtube.com/results?search_query=RIVIERA HÔTEL D'HAÏTI
L'ENSEMBLE KALIKO COUPÉ;https://www.youtube.com/results?search_query=L'ENSEMBLE KALIKO COUPÉ
L'INTERNATIONAL;https://www.youtube.com/results?search_query=L'INTERNATIONAL
RODRIGUE MILIEN ...;https://www.youtube.com/results?search_query=RODRIGUE MILIEN ...
L'ORCHESTRE "LA MELODIE CELESTE";https://www.youtube.com/results?search_query=L'ORCHESTRE "LA MELODIE CELESTE"
L'ORCHESTRE DE LA;https://www.youtube.com/results?search_query=L'ORCHESTRE DE LA
RADIO NATIONALE;https://www.youtube.com/results?search_query=RADIO NATIONALE
L'ORCHESTRE "MAGIC" DE CHICAGO;https://www.youtube.com/results?search_query=L'ORCHESTRE "MAGIC" DE CHICAGO
L'ORCHESTRE MERIDIONAL;https://www.youtube.com/results?search_query=L'ORCHESTRE MERIDIONAL
L'ORCHESTRE NAZARETH;https://www.youtube.com/results?search_query=L'ORCHESTRE NAZARETH
LA BELLE CRÉOLE TRIO;https://www.youtube.com/results?search_query=LA BELLE CRÉOLE TRIO
LA CHORALE DES JEUNES DE L'EGLISE BAPTISTE D'EXPRESSION FRANCAISE;https://www.youtube.com/results?search_query=LA CHORALE DES JEUNES DE L'EGLISE BAPTISTE D'EXPRESSION FRANCAISE
LA PETITE TROMPETTE;https://www.youtube.com/results?search_query=LA PETITE TROMPETTE
LA RUCHE;https://www.youtube.com/results?search_query=LA RUCHE
LA RUCHE DE LEOGANE;https://www.youtube.com/results?search_query=LA RUCHE DE LEOGANE
LA SALINE GROUP;https://www.youtube.com/results?search_query=LA SALINE GROUP
LA TROUPE MACKANDAL;https://www.youtube.com/results?search_query=LA TROUPE MACKANDAL
LA VOIX DE L'ESPERANCE;https://www.youtube.com/results?search_query=LA VOIX DE L'ESPERANCE
LA VOIX DES ADORATEURS;https://www.youtube.com/results?search_query=LA VOIX DES ADORATEURS
LA VOIX DES ANGES;https://www.youtube.com/results?search_query=LA VOIX DES ANGES
LAKOL;https://www.youtube.com/results?search_query=LAKOL
LAKOL MIZIK MAJIK - D'HAÏTI;https://www.youtube.com/results?search_query=LAKOL MIZIK MAJIK - D'HAÏTI
LANGUICHATTE DEBORDUS;https://www.youtube.com/results?search_query=LANGUICHATTE DEBORDUS
LAROSE;https://www.youtube.com/results?search_query=LAROSE
LAROSE & MISSILE 727;https://www.youtube.com/results?search_query=LAROSE & MISSILE 727
LAURENT CICERON;https://www.youtube.com/results?search_query=LAURENT CICERON
LE CHŒUR DES BIENHEUREUX;https://www.youtube.com/results?search_query=LE CHŒUR DES BIENHEUREUX
LE CHŒUR MICHEL DEJEAN;https://www.youtube.com/results?search_query=LE CHŒUR MICHEL DEJEAN
LE CHŒUR SIMIDOR;https://www.youtube.com/results?search_query=LE CHŒUR SIMIDOR
LE GROUPE;https://www.youtube.com/results?search_query=LE GROUPE
 " HELPING HANDS ";https://www.youtube.com/results?search_query= " HELPING HANDS "
LE GROUPE HAÏTI CHERIE;https://www.youtube.com/results?search_query=LE GROUPE HAÏTI CHERIE
LE GROUPE HAÏTI - MINI;https://www.youtube.com/results?search_query=LE GROUPE HAÏTI - MINI
LE GROUPE INSPIRATION;https://www.youtube.com/results?search_query=LE GROUPE INSPIRATION
LE GROUPE SOLEY;https://www.youtube.com/results?search_query=LE GROUPE SOLEY
LE LABEL " CITADELLE ";https://www.youtube.com/results?search_query=LE LABEL " CITADELLE "
LE LABEL " SOUNDCFRAT ";https://www.youtube.com/results?search_query=LE LABEL " SOUNDCFRAT "
LE ROI COUPÉ CLOUÉ &;https://www.youtube.com/results?search_query=LE ROI COUPÉ CLOUÉ &
LE PRINCE ASSALY;https://www.youtube.com/results?search_query=LE PRINCE ASSALY
LE ROI COUPÉ CLOUÉ &;https://www.youtube.com/results?search_query=LE ROI COUPÉ CLOUÉ &
L'ORCHESTRE SEPTENTRIONAL;https://www.youtube.com/results?search_query=L'ORCHESTRE SEPTENTRIONAL
LE SUPER MACHO BAND;https://www.youtube.com/results?search_query=LE SUPER MACHO BAND
LE VAUDOU HAÏTIEN;https://www.youtube.com/results?search_query=LE VAUDOU HAÏTIEN
LEON DIMANCHE;https://www.youtube.com/results?search_query=LEON DIMANCHE
LEON DIMANCHE &;https://www.youtube.com/results?search_query=LEON DIMANCHE &
LES LIONCEAUX DES CAYES;https://www.youtube.com/results?search_query=LES LIONCEAUX DES CAYES
LES 7 VEDETTES;https://www.youtube.com/results?search_query=LES 7 VEDETTES
LES AMBASSADEURS;https://www.youtube.com/results?search_query=LES AMBASSADEURS
LES AMBASSADEURS DE CHRIST;https://www.youtube.com/results?search_query=LES AMBASSADEURS DE CHRIST
LES ANIMATEURS;https://www.youtube.com/results?search_query=LES ANIMATEURS
LES AS DE PETION-VILLE;https://www.youtube.com/results?search_query=LES AS DE PETION-VILLE
LES BANGES D'HAÏTI;https://www.youtube.com/results?search_query=LES BANGES D'HAÏTI
LES BEATNIKS;https://www.youtube.com/results?search_query=LES BEATNIKS
LES BI-TOPS;https://www.youtube.com/results?search_query=LES BI-TOPS
LES CHARMEURS DU CAP;https://www.youtube.com/results?search_query=LES CHARMEURS DU CAP
LES CHECKERS;https://www.youtube.com/results?search_query=LES CHECKERS
LES CHÔMEURS;https://www.youtube.com/results?search_query=LES CHÔMEURS
LES CHRISTOPHILES;https://www.youtube.com/results?search_query=LES CHRISTOPHILES
LES CHRISTOPHILE DE MONTREAL;https://www.youtube.com/results?search_query=LES CHRISTOPHILE DE MONTREAL
LES CONSULS D'HAÏTI;https://www.youtube.com/results?search_query=LES CONSULS D'HAÏTI
LES COUGARS;https://www.youtube.com/results?search_query=LES COUGARS
LES DEVOUES MISSIONNAIRES;https://www.youtube.com/results?search_query=LES DEVOUES MISSIONNAIRES
LES DIABLES BLEUS;https://www.youtube.com/results?search_query=LES DIABLES BLEUS
LES DIABLES DU RYTHME;https://www.youtube.com/results?search_query=LES DIABLES DU RYTHME
LES DIABLES DU RYTHME DE St. MARC;https://www.youtube.com/results?search_query=LES DIABLES DU RYTHME DE St. MARC
LES DIFFICILES;https://www.youtube.com/results?search_query=LES DIFFICILES
DE NEW YORK;https://www.youtube.com/results?search_query=DE NEW YORK
LES DIFFICILES;https://www.youtube.com/results?search_query=LES DIFFICILES
DE PETION-VILLE;https://www.youtube.com/results?search_query=DE PETION-VILLE
LES DIPLOMATES D'HAÏTI;https://www.youtube.com/results?search_query=LES DIPLOMATES D'HAÏTI
LES DOCTEURS DU RYTHME;https://www.youtube.com/results?search_query=LES DOCTEURS DU RYTHME
LES DRAGONNAIRES;https://www.youtube.com/results?search_query=LES DRAGONNAIRES
DE PORT DE PAIX;https://www.youtube.com/results?search_query=DE PORT DE PAIX
LES ÉTINCELLES;https://www.youtube.com/results?search_query=LES ÉTINCELLES
DE L' ÉVANGILE;https://www.youtube.com/results?search_query=DE L' ÉVANGILE
LES FANTAISISTES;https://www.youtube.com/results?search_query=LES FANTAISISTES
DE CARREFOUR \ D'HAÏTI;https://www.youtube.com/results?search_query=DE CARREFOUR \ D'HAÏTI
LES FORMIDABLES;https://www.youtube.com/results?search_query=LES FORMIDABLES
DE St. MARC;https://www.youtube.com/results?search_query=DE St. MARC
LES FRERES DEJEAN;https://www.youtube.com/results?search_query=LES FRERES DEJEAN
LES FRERES DODO;https://www.youtube.com/results?search_query=LES FRERES DODO
LES FRERES PARENT;https://www.youtube.com/results?search_query=LES FRERES PARENT
LES FRERES PARENT;https://www.youtube.com/results?search_query=LES FRERES PARENT
rencontre;https://www.youtube.com/results?search_query=rencontre
RAYON DE L'ESPOIR;https://www.youtube.com/results?search_query=RAYON DE L'ESPOIR
LES GAIS TROUBADOURS;https://www.youtube.com/results?search_query=LES GAIS TROUBADOURS
LES GITANS;https://www.youtube.com/results?search_query=LES GITANS
LES GUITTARLOIS;https://www.youtube.com/results?search_query=LES GUITTARLOIS
LES GYPSIES;https://www.youtube.com/results?search_query=LES GYPSIES
LES GYPSIES;https://www.youtube.com/results?search_query=LES GYPSIES
DE PETION-VILLE;https://www.youtube.com/results?search_query=DE PETION-VILLE
LES GYPSIES;https://www.youtube.com/results?search_query=LES GYPSIES
DE PETION-VILLE;https://www.youtube.com/results?search_query=DE PETION-VILLE
LES GYPSIES DE QUEENS;https://www.youtube.com/results?search_query=LES GYPSIES DE QUEENS
LES HOMMES MISSIONNAIRES DE L'EGLISE BAPTISTE D'EXPRESSION FRANCAISE;https://www.youtube.com/results?search_query=LES HOMMES MISSIONNAIRES DE L'EGLISE BAPTISTE D'EXPRESSION FRANCAISE
LES IMITATEURS DE JESUS CHRIST;https://www.youtube.com/results?search_query=LES IMITATEURS DE JESUS CHRIST
LES INVINCIBLES DE JACMEL;https://www.youtube.com/results?search_query=LES INVINCIBLES DE JACMEL
LES JEUNES GARS POUR CHRIST;https://www.youtube.com/results?search_query=LES JEUNES GARS POUR CHRIST
LES JOUVENCEAUX;https://www.youtube.com/results?search_query=LES JOUVENCEAUX
DE JACMEL;https://www.youtube.com/results?search_query=DE JACMEL
LES LÉGENDAIRES D'HAÏTI;https://www.youtube.com/results?search_query=LES LÉGENDAIRES D'HAÏTI
LES LIONCEAUX DES CAYES;https://www.youtube.com/results?search_query=LES LIONCEAUX DES CAYES
LES LOUPS NOIRS;https://www.youtube.com/results?search_query=LES LOUPS NOIRS
LES MASTER FUL D'HAÏTI;https://www.youtube.com/results?search_query=LES MASTER FUL D'HAÏTI
LES MESSAGERS DE LA NOUVELLE ALLIANCE;https://www.youtube.com/results?search_query=LES MESSAGERS DE LA NOUVELLE ALLIANCE
LES PACHAS;https://www.youtube.com/results?search_query=LES PACHAS
DU CANAPÉ VERT;https://www.youtube.com/results?search_query=DU CANAPÉ VERT
LES PROFESSIONNELS;https://www.youtube.com/results?search_query=LES PROFESSIONNELS
LES SHELBERTS;https://www.youtube.com/results?search_query=LES SHELBERTS
LES SKAH SHAH D'HAÏTI;https://www.youtube.com/results?search_query=LES SKAH SHAH D'HAÏTI
LES SŒURS EUGENE GINA et GINETTE;https://www.youtube.com/results?search_query=LES SŒURS EUGENE GINA et GINETTE
et WAGNER LALANNE;https://www.youtube.com/results?search_query=et WAGNER LALANNE
LES STARS;https://www.youtube.com/results?search_query=LES STARS
LES TAFIATEURS;https://www.youtube.com/results?search_query=LES TAFIATEURS
LES VEDETTES D'HAÏTI;https://www.youtube.com/results?search_query=LES VEDETTES D'HAÏTI
LES VIKINGS;https://www.youtube.com/results?search_query=LES VIKINGS
LES VIKINGS D'HAÏTI;https://www.youtube.com/results?search_query=LES VIKINGS D'HAÏTI
LES VIRTUOSES;https://www.youtube.com/results?search_query=LES VIRTUOSES
DU RYTHME DE St. MARC;https://www.youtube.com/results?search_query=DU RYTHME DE St. MARC
LES VOODIX DE MONTRÉAL;https://www.youtube.com/results?search_query=LES VOODIX DE MONTRÉAL
LEVELT JEUNE;https://www.youtube.com/results?search_query=LEVELT JEUNE
LIFRANC;https://www.youtube.com/results?search_query=LIFRANC
LIMONE A. JOSEPH;https://www.youtube.com/results?search_query=LIMONE A. JOSEPH
LIONEL BENJAMIN;https://www.youtube.com/results?search_query=LIONEL BENJAMIN
LIONEL BENJAMIN &;https://www.youtube.com/results?search_query=LIONEL BENJAMIN &
LES FRERES DEJEAN;https://www.youtube.com/results?search_query=LES FRERES DEJEAN
LIONEL DORLETTE;https://www.youtube.com/results?search_query=LIONEL DORLETTE
LIONEL PIERRE;https://www.youtube.com/results?search_query=LIONEL PIERRE
LIZA WILLIAMS BEAUVIL;https://www.youtube.com/results?search_query=LIZA WILLIAMS BEAUVIL
LOKO;https://www.youtube.com/results?search_query=LOKO
LOS DIPLOMATICOS DE HAÏTI;https://www.youtube.com/results?search_query=LOS DIPLOMATICOS DE HAÏTI
LOUBERT CADET;https://www.youtube.com/results?search_query=LOUBERT CADET
LOUBERT CHANCY &;https://www.youtube.com/results?search_query=LOUBERT CHANCY &
FRIENDS;https://www.youtube.com/results?search_query=FRIENDS
LOUIS LAHENS &;https://www.youtube.com/results?search_query=LOUIS LAHENS &
LES GAIS TROUBADOURS;https://www.youtube.com/results?search_query=LES GAIS TROUBADOURS
LOUIS PHILIPPE;https://www.youtube.com/results?search_query=LOUIS PHILIPPE
LUCIEN & LALANNE;https://www.youtube.com/results?search_query=LUCIEN & LALANNE
LUDOVIC LAMOTHE;https://www.youtube.com/results?search_query=LUDOVIC LAMOTHE
LUMIÈRE CÉLESTE;https://www.youtube.com/results?search_query=LUMIÈRE CÉLESTE
LYNN;https://www.youtube.com/results?search_query=LYNN
MACHO PLUS;https://www.youtube.com/results?search_query=MACHO PLUS
MAGIC CONNECTION;https://www.youtube.com/results?search_query=MAGIC CONNECTION
MAGNUM BAND;https://www.youtube.com/results?search_query=MAGNUM BAND
MAGUY JEAN-LOUIS;https://www.youtube.com/results?search_query=MAGUY JEAN-LOUIS
MAMBO DIELA;https://www.youtube.com/results?search_query=MAMBO DIELA
MAMBO LUCIENNE;https://www.youtube.com/results?search_query=MAMBO LUCIENNE
MANIOLITA;https://www.youtube.com/results?search_query=MANIOLITA
MANIAK;https://www.youtube.com/results?search_query=MANIAK
MANNO CHALMAY;https://www.youtube.com/results?search_query=MANNO CHALMAY
MANNO CHARLEMAGNE;https://www.youtube.com/results?search_query=MANNO CHARLEMAGNE
MANNO & MARCO;https://www.youtube.com/results?search_query=MANNO & MARCO
MARC MATHELIER;https://www.youtube.com/results?search_query=MARC MATHELIER
MARC-YVES VOLCY;https://www.youtube.com/results?search_query=MARC-YVES VOLCY
MARCEL ALEXIS;https://www.youtube.com/results?search_query=MARCEL ALEXIS
MARCEL and his TOPCATS;https://www.youtube.com/results?search_query=MARCEL and his TOPCATS
MARCEL VICTOR;https://www.youtube.com/results?search_query=MARCEL VICTOR
MARIE MIRCA TANGAR;https://www.youtube.com/results?search_query=MARIE MIRCA TANGAR
MARIO de VOLCY;https://www.youtube.com/results?search_query=MARIO de VOLCY
MARLENE TH REMY;https://www.youtube.com/results?search_query=MARLENE TH REMY
MARTHA JEAN-CLAUDE;https://www.youtube.com/results?search_query=MARTHA JEAN-CLAUDE
MASAJ;https://www.youtube.com/results?search_query=MASAJ
MASTER DJI;https://www.youtube.com/results?search_query=MASTER DJI
MATHILDA BEAUVOIR;https://www.youtube.com/results?search_query=MATHILDA BEAUVOIR
MAUD & TI ROI;https://www.youtube.com/results?search_query=MAUD & TI ROI
MAURICE SIXTO;https://www.youtube.com/results?search_query=MAURICE SIXTO
MAX BENOIT;https://www.youtube.com/results?search_query=MAX BENOIT
MAXIMA all STARS;https://www.youtube.com/results?search_query=MAXIMA all STARS
MERIDIONAL de MONTRÉAL;https://www.youtube.com/results?search_query=MERIDIONAL de MONTRÉAL
MERIDIONAL des CAYES;https://www.youtube.com/results?search_query=MERIDIONAL des CAYES
MESMIN CHERY;https://www.youtube.com/results?search_query=MESMIN CHERY
MET GABO;https://www.youtube.com/results?search_query=MET GABO
METEOR D'HAÏTI;https://www.youtube.com/results?search_query=METEOR D'HAÏTI
MIAMI HIT;https://www.youtube.com/results?search_query=MIAMI HIT
MIAMI LIVE;https://www.youtube.com/results?search_query=MIAMI LIVE
MICHEL-ANGE BAZILE;https://www.youtube.com/results?search_query=MICHEL-ANGE BAZILE
MICHEL BATISTA;https://www.youtube.com/results?search_query=MICHEL BATISTA
MICHEL DESGROTTES;https://www.youtube.com/results?search_query=MICHEL DESGROTTES
MICHEL MARTELLY;https://www.youtube.com/results?search_query=MICHEL MARTELLY
MICHEL PRESSOIR;https://www.youtube.com/results?search_query=MICHEL PRESSOIR
MICHEL TASSY;https://www.youtube.com/results?search_query=MICHEL TASSY
MICHELINE LAUDUN DENIS;https://www.youtube.com/results?search_query=MICHELINE LAUDUN DENIS
MINI all STARS;https://www.youtube.com/results?search_query=MINI all STARS
MIZIK MIZIK;https://www.youtube.com/results?search_query=MIZIK MIZIK
MURAT PIERRE;https://www.youtube.com/results?search_query=MURAT PIERRE
MUSHI & LAKANSYEL;https://www.youtube.com/results?search_query=MUSHI & LAKANSYEL
MYRIAM PHILIDOR DORISME;https://www.youtube.com/results?search_query=MYRIAM PHILIDOR DORISME
MYSTIC;https://www.youtube.com/results?search_query=MYSTIC
NATIF NATAL;https://www.youtube.com/results?search_query=NATIF NATAL
NEMOURS JEAN-BAPTISTE;https://www.youtube.com/results?search_query=NEMOURS JEAN-BAPTISTE
NEMOURS JEAN-BAPTISTE;https://www.youtube.com/results?search_query=NEMOURS JEAN-BAPTISTE
& WEBERT SICOT;https://www.youtube.com/results?search_query=& WEBERT SICOT
NOUVELLE VAGUE;https://www.youtube.com/results?search_query=NOUVELLE VAGUE
NUMBER ONE;https://www.youtube.com/results?search_query=NUMBER ONE
MUSIC BAND;https://www.youtube.com/results?search_query=MUSIC BAND
ODJAH;https://www.youtube.com/results?search_query=ODJAH
ODYSSEY ONE;https://www.youtube.com/results?search_query=ODYSSEY ONE
OMNI BAND D'HAÏTI;https://www.youtube.com/results?search_query=OMNI BAND D'HAÏTI
ONIKEL AUGUSTIN;https://www.youtube.com/results?search_query=ONIKEL AUGUSTIN
ORCHESTRA;https://www.youtube.com/results?search_query=ORCHESTRA
DERNST & FRIENDS;https://www.youtube.com/results?search_query=DERNST & FRIENDS
ORCHESTRE;https://www.youtube.com/results?search_query=ORCHESTRE
CITADELLE;https://www.youtube.com/results?search_query=CITADELLE
ORCHESTRE EL MORRO - PICANA;https://www.youtube.com/results?search_query=ORCHESTRE EL MORRO - PICANA
ORCHESTRE;https://www.youtube.com/results?search_query=ORCHESTRE
LA RUCHE de LEOGANE;https://www.youtube.com/results?search_query=LA RUCHE de LEOGANE
ORCHESTRE;https://www.youtube.com/results?search_query=ORCHESTRE
LE JEUNE WEBERT SICOT;https://www.youtube.com/results?search_query=LE JEUNE WEBERT SICOT
ORCHESTRE;https://www.youtube.com/results?search_query=ORCHESTRE
Les DIABLES du RYTHME;https://www.youtube.com/results?search_query=Les DIABLES du RYTHME
ORCHESTRE;https://www.youtube.com/results?search_query=ORCHESTRE
MERIDIONAL des CAYES;https://www.youtube.com/results?search_query=MERIDIONAL des CAYES
ORCHESTRE;https://www.youtube.com/results?search_query=ORCHESTRE
PANORAMA des CAYES;https://www.youtube.com/results?search_query=PANORAMA des CAYES
ORCHESTRE;https://www.youtube.com/results?search_query=ORCHESTRE
SEPTENTRIONAL;https://www.youtube.com/results?search_query=SEPTENTRIONAL
ORCHESTRE;https://www.youtube.com/results?search_query=ORCHESTRE
SIMBIE des GONAÏVES;https://www.youtube.com/results?search_query=SIMBIE des GONAÏVES
ORCHESTRE;https://www.youtube.com/results?search_query=ORCHESTRE
SUPER CHOUCOUNE 70;https://www.youtube.com/results?search_query=SUPER CHOUCOUNE 70
ORCHESTRE SYMPHONIE ANGELIQUE D'HAÏTI;https://www.youtube.com/results?search_query=ORCHESTRE SYMPHONIE ANGELIQUE D'HAÏTI
ORCHESTRE;https://www.youtube.com/results?search_query=ORCHESTRE
TROPICANA D'HAÏTI;https://www.youtube.com/results?search_query=TROPICANA D'HAÏTI
ORIGINAL MISSILE 727;https://www.youtube.com/results?search_query=ORIGINAL MISSILE 727
ORLINE TITUS;https://www.youtube.com/results?search_query=ORLINE TITUS
OUI;https://www.youtube.com/results?search_query=OUI
PAPA JUBE;https://www.youtube.com/results?search_query=PAPA JUBE
PAPASH;https://www.youtube.com/results?search_query=PAPASH
PASSION;https://www.youtube.com/results?search_query=PASSION
PATRICK ARMAND;https://www.youtube.com/results?search_query=PATRICK ARMAND
PAULETTE CASTEL;https://www.youtube.com/results?search_query=PAULETTE CASTEL
PAULO & BRIMAD;https://www.youtube.com/results?search_query=PAULO & BRIMAD
PAULONNE GEORGES;https://www.youtube.com/results?search_query=PAULONNE GEORGES
PELIN-TET;https://www.youtube.com/results?search_query=PELIN-TET
PEPE BAYARD;https://www.youtube.com/results?search_query=PEPE BAYARD
PHANTOMS;https://www.youtube.com/results?search_query=PHANTOMS
PHANTTOMS;https://www.youtube.com/results?search_query=PHANTTOMS
PHASE ONE;https://www.youtube.com/results?search_query=PHASE ONE
PHELICIA DELL;https://www.youtube.com/results?search_query=PHELICIA DELL
PIE 1;https://www.youtube.com/results?search_query=PIE 1
PIERRE ANTOINE;https://www.youtube.com/results?search_query=PIERRE ANTOINE
PIERRE ARISTIL présente JESSIE;https://www.youtube.com/results?search_query=PIERRE ARISTIL présente JESSIE
PIERRE BELHOMME;https://www.youtube.com/results?search_query=PIERRE BELHOMME
and the EXCELSION SINGERS;https://www.youtube.com/results?search_query=and the EXCELSION SINGERS
PIERRE BLAIN;https://www.youtube.com/results?search_query=PIERRE BLAIN
PIERRE CHERIZA FENELUS;https://www.youtube.com/results?search_query=PIERRE CHERIZA FENELUS
PIERROT PHILIBERT;https://www.youtube.com/results?search_query=PIERROT PHILIBERT
PIROGUE;https://www.youtube.com/results?search_query=PIROGUE
PLEIN PIP;https://www.youtube.com/results?search_query=PLEIN PIP
POWER 4;https://www.youtube.com/results?search_query=POWER 4
PRINCE ASSALY;https://www.youtube.com/results?search_query=PRINCE ASSALY
PRO DOMO SUA;https://www.youtube.com/results?search_query=PRO DOMO SUA
PUISSANCE DE LA FOI;https://www.youtube.com/results?search_query=PUISSANCE DE LA FOI
PYEBEF;https://www.youtube.com/results?search_query=PYEBEF
PAPA JUBE;https://www.youtube.com/results?search_query=PAPA JUBE
PAPASH;https://www.youtube.com/results?search_query=PAPASH
PASSION;https://www.youtube.com/results?search_query=PASSION
PATRICK ARMAND;https://www.youtube.com/results?search_query=PATRICK ARMAND
PAULETTE CASTEL;https://www.youtube.com/results?search_query=PAULETTE CASTEL
PAULO & BRIMAD;https://www.youtube.com/results?search_query=PAULO & BRIMAD
PAULONNE GEORGES;https://www.youtube.com/results?search_query=PAULONNE GEORGES
PELIN-TET;https://www.youtube.com/results?search_query=PELIN-TET
PEPE BAYARD;https://www.youtube.com/results?search_query=PEPE BAYARD
PHANTOMS;https://www.youtube.com/results?search_query=PHANTOMS
PHANTTOMS;https://www.youtube.com/results?search_query=PHANTTOMS
PHASE ONE;https://www.youtube.com/results?search_query=PHASE ONE
PHELICIA DELL;https://www.youtube.com/results?search_query=PHELICIA DELL
PIE 1;https://www.youtube.com/results?search_query=PIE 1
PIERRE ANTOINE;https://www.youtube.com/results?search_query=PIERRE ANTOINE
PIERRE ARISTIL présente JESSIE;https://www.youtube.com/results?search_query=PIERRE ARISTIL présente JESSIE
PIERRE BELHOMME;https://www.youtube.com/results?search_query=PIERRE BELHOMME
and the EXCELSION SINGERS;https://www.youtube.com/results?search_query=and the EXCELSION SINGERS
PIERRE BLAIN;https://www.youtube.com/results?search_query=PIERRE BLAIN
PIERRE CHERIZA FENELUS;https://www.youtube.com/results?search_query=PIERRE CHERIZA FENELUS
PIERROT PHILIBERT;https://www.youtube.com/results?search_query=PIERROT PHILIBERT
PIROGUE;https://www.youtube.com/results?search_query=PIROGUE
PLEIN PIP;https://www.youtube.com/results?search_query=PLEIN PIP
POWER 4;https://www.youtube.com/results?search_query=POWER 4
PRINCE ASSALY;https://www.youtube.com/results?search_query=PRINCE ASSALY
PRO DOMO SUA;https://www.youtube.com/results?search_query=PRO DOMO SUA
PUISSANCE DE LA FOI;https://www.youtube.com/results?search_query=PUISSANCE DE LA FOI
PYEBEF;https://www.youtube.com/results?search_query=PYEBEF
QUISKEYA;https://www.youtube.com/results?search_query=QUISKEYA
RACINE MAPOU;https://www.youtube.com/results?search_query=RACINE MAPOU
RACINES;https://www.youtube.com/results?search_query=RACINES
RAFO;https://www.youtube.com/results?search_query=RAFO
RALPHO GABRIEL;https://www.youtube.com/results?search_query=RALPHO GABRIEL
RAM;https://www.youtube.com/results?search_query=RAM
RAOUL DENIS Jr.;https://www.youtube.com/results?search_query=RAOUL DENIS Jr.
RAOUL GUILLAUME;https://www.youtube.com/results?search_query=RAOUL GUILLAUME
RAOUL GUILLAUME;https://www.youtube.com/results?search_query=RAOUL GUILLAUME
NEMOURS JEAN-BAPTISTE;https://www.youtube.com/results?search_query=NEMOURS JEAN-BAPTISTE
RAPHAEL ANJOU;https://www.youtube.com/results?search_query=RAPHAEL ANJOU
RARA MACHINE;https://www.youtube.com/results?search_query=RARA MACHINE
RAYMOND CAJUSTE;https://www.youtube.com/results?search_query=RAYMOND CAJUSTE
RAYMOND CHASSAGNE;https://www.youtube.com/results?search_query=RAYMOND CHASSAGNE
RAYMOND;https://www.youtube.com/results?search_query=RAYMOND
CICAULT \ SICOT;https://www.youtube.com/results?search_query=CICAULT \ SICOT
RAYMONDE BASTIDE;https://www.youtube.com/results?search_query=RAYMONDE BASTIDE
RAYON DE L'ESPOIR;https://www.youtube.com/results?search_query=RAYON DE L'ESPOIR
REGINALD POLICARD;https://www.youtube.com/results?search_query=REGINALD POLICARD
RELAXX BAND;https://www.youtube.com/results?search_query=RELAXX BAND
RÉVEIL FOLKLORIQUE;https://www.youtube.com/results?search_query=RÉVEIL FOLKLORIQUE
REYNOLD LOUIS PHILIPPE;https://www.youtube.com/results?search_query=REYNOLD LOUIS PHILIPPE
RICARDO FRANCK;https://www.youtube.com/results?search_query=RICARDO FRANCK
RICHARD AUGUSTIN;https://www.youtube.com/results?search_query=RICHARD AUGUSTIN
RICHARD DUROSEAU;https://www.youtube.com/results?search_query=RICHARD DUROSEAU
RICKY BROWN;https://www.youtube.com/results?search_query=RICKY BROWN
RICOT MAZARIN;https://www.youtube.com/results?search_query=RICOT MAZARIN
RIGAUD DUVERNE;https://www.youtube.com/results?search_query=RIGAUD DUVERNE
RIGAUD DUVERNE ;https://www.youtube.com/results?search_query=RIGAUD DUVERNE 
et les frères CINE;https://www.youtube.com/results?search_query=et les frères CINE
RIGAUD DUVERNE;https://www.youtube.com/results?search_query=RIGAUD DUVERNE
et son groupe HELPING HANDS;https://www.youtube.com/results?search_query=et son groupe HELPING HANDS
RISKE;https://www.youtube.com/results?search_query=RISKE
RIVIERA HÔTEL D'HAÏTI;https://www.youtube.com/results?search_query=RIVIERA HÔTEL D'HAÏTI
ROBERT MARTINO;https://www.youtube.com/results?search_query=ROBERT MARTINO
ROBERT St. FLEUR;https://www.youtube.com/results?search_query=ROBERT St. FLEUR
RODOLPHE LEGROS &;https://www.youtube.com/results?search_query=RODOLPHE LEGROS &
son ENSEMBLE IBO LELE;https://www.youtube.com/results?search_query=son ENSEMBLE IBO LELE
RODRIGUE FLEURISCA;https://www.youtube.com/results?search_query=RODRIGUE FLEURISCA
RODRIGUE GAUTHIER;https://www.youtube.com/results?search_query=RODRIGUE GAUTHIER
RODRIGUE MILLIEN;https://www.youtube.com/results?search_query=RODRIGUE MILLIEN
RODRIGUE TOUSSAINT;https://www.youtube.com/results?search_query=RODRIGUE TOUSSAINT
ROGER COLAS;https://www.youtube.com/results?search_query=ROGER COLAS
ROMEL EUSTACHE;https://www.youtube.com/results?search_query=ROMEL EUSTACHE
RONALD;https://www.youtube.com/results?search_query=RONALD
RONALD RODRIGUE;https://www.youtube.com/results?search_query=RONALD RODRIGUE
RONALD SMITH;https://www.youtube.com/results?search_query=RONALD SMITH
RONY JOLICOEUR;https://www.youtube.com/results?search_query=RONY JOLICOEUR
ROSE CLAUDELLE DANIEL;https://www.youtube.com/results?search_query=ROSE CLAUDELLE DANIEL
ROSELIN ANTOINE;https://www.youtube.com/results?search_query=ROSELIN ANTOINE
ROSSIGNOLS NOIRS;https://www.youtube.com/results?search_query=ROSSIGNOLS NOIRS
RYTHMO BAND;https://www.youtube.com/results?search_query=RYTHMO BAND
SAFARI COMBO;https://www.youtube.com/results?search_query=SAFARI COMBO
SAGITARIO-BAND D'HAÏTI;https://www.youtube.com/results?search_query=SAGITARIO-BAND D'HAÏTI
SAH JADAH;https://www.youtube.com/results?search_query=SAH JADAH
SAÏMA;https://www.youtube.com/results?search_query=SAÏMA
SAKAD;https://www.youtube.com/results?search_query=SAKAD
SAKAJ;https://www.youtube.com/results?search_query=SAKAJ
SAMBA CREOLE;https://www.youtube.com/results?search_query=SAMBA CREOLE
SAMUEL LABORDE;https://www.youtube.com/results?search_query=SAMUEL LABORDE
SANBA-LELE;https://www.youtube.com/results?search_query=SANBA-LELE
SANTARIA HAÏTIANA;https://www.youtube.com/results?search_query=SANTARIA HAÏTIANA
SAX by DUKE;https://www.youtube.com/results?search_query=SAX by DUKE
SCORPIO;https://www.youtube.com/results?search_query=SCORPIO
SE SA;https://www.youtube.com/results?search_query=SE SA
SELECT de NEW YORK;https://www.youtube.com/results?search_query=SELECT de NEW YORK
SEMENCE D' EN HAUT;https://www.youtube.com/results?search_query=SEMENCE D' EN HAUT
SEMEURS de L'ÉVANGILE;https://www.youtube.com/results?search_query=SEMEURS de L'ÉVANGILE
SERGIO COMPA BAND;https://www.youtube.com/results?search_query=SERGIO COMPA BAND
SEXTET SENTIMENTAL;https://www.youtube.com/results?search_query=SEXTET SENTIMENTAL
du CAP HAÏTIEN;https://www.youtube.com/results?search_query=du CAP HAÏTIEN
SEXY ONE;https://www.youtube.com/results?search_query=SEXY ONE
SHADOW BAND;https://www.youtube.com/results?search_query=SHADOW BAND
SHADOX;https://www.youtube.com/results?search_query=SHADOX
SHAMBA # 1 de BOSTON;https://www.youtube.com/results?search_query=SHAMBA # 1 de BOSTON
SHAMBA # 1 de BOSTON;https://www.youtube.com/results?search_query=SHAMBA # 1 de BOSTON
& DJET-X;https://www.youtube.com/results?search_query=& DJET-X
SHAMBA BAND;https://www.youtube.com/results?search_query=SHAMBA BAND
SHAM-SHAM BAND;https://www.youtube.com/results?search_query=SHAM-SHAM BAND
SHANGO;https://www.youtube.com/results?search_query=SHANGO
SHIRLEY;https://www.youtube.com/results?search_query=SHIRLEY
SHLEU SHLEU;https://www.youtube.com/results?search_query=SHLEU SHLEU
SHOO-BLAK;https://www.youtube.com/results?search_query=SHOO-BLAK
SHOOGAR COMBO;https://www.youtube.com/results?search_query=SHOOGAR COMBO
SHUPA SHUPA D'HAÏTI;https://www.youtube.com/results?search_query=SHUPA SHUPA D'HAÏTI
SILENCIEUX JEAN-CLOTAIRE;https://www.youtube.com/results?search_query=SILENCIEUX JEAN-CLOTAIRE
SIWO;https://www.youtube.com/results?search_query=SIWO
SIWO D'HAÏTI;https://www.youtube.com/results?search_query=SIWO D'HAÏTI
SKAH SHAH de NEW YORK;https://www.youtube.com/results?search_query=SKAH SHAH de NEW YORK
SKANDAL;https://www.youtube.com/results?search_query=SKANDAL
SKYBAND;https://www.youtube.com/results?search_query=SKYBAND
SOLEY LEVE;https://www.youtube.com/results?search_query=SOLEY LEVE
SOUFFLE DIVIN;https://www.youtube.com/results?search_query=SOUFFLE DIVIN
SOUL;https://www.youtube.com/results?search_query=SOUL
SOUL BROTHERS IN CHRIST;https://www.youtube.com/results?search_query=SOUL BROTHERS IN CHRIST
STAFF;https://www.youtube.com/results?search_query=STAFF
STERLIN'G COMPAS MIX;https://www.youtube.com/results?search_query=STERLIN'G COMPAS MIX
STEVE ALBERT HYPPOLITE;https://www.youtube.com/results?search_query=STEVE ALBERT HYPPOLITE
St JUSTE ZAMOR;https://www.youtube.com/results?search_query=St JUSTE ZAMOR
STRINGS;https://www.youtube.com/results?search_query=STRINGS
SUPER 9;https://www.youtube.com/results?search_query=SUPER 9
SUPER CHOUCOUNE;https://www.youtube.com/results?search_query=SUPER CHOUCOUNE
SOLEIL D'HAÏTI;https://www.youtube.com/results?search_query=SOLEIL D'HAÏTI
SUPER COMBO;https://www.youtube.com/results?search_query=SUPER COMBO
de NEMOURS JEAN-BAPTISTE;https://www.youtube.com/results?search_query=de NEMOURS JEAN-BAPTISTE
SUPER ENSEMBLE LATINO;https://www.youtube.com/results?search_query=SUPER ENSEMBLE LATINO
SUPER ENSEMBLE;https://www.youtube.com/results?search_query=SUPER ENSEMBLE
NEMOURS JEAN-BAPTISTE;https://www.youtube.com/results?search_query=NEMOURS JEAN-BAPTISTE
SUPER ENSEMBLE;https://www.youtube.com/results?search_query=SUPER ENSEMBLE
TOP COMPAS;https://www.youtube.com/results?search_query=TOP COMPAS
SUPER ENSEMBLE;https://www.youtube.com/results?search_query=SUPER ENSEMBLE
WEBERT SICOT;https://www.youtube.com/results?search_query=WEBERT SICOT
SUPER JAZZ des JEUNES;https://www.youtube.com/results?search_query=SUPER JAZZ des JEUNES
SUPER SOLINE;https://www.youtube.com/results?search_query=SUPER SOLINE
SUPER SONIC 747;https://www.youtube.com/results?search_query=SUPER SONIC 747
de LAROSE;https://www.youtube.com/results?search_query=de LAROSE
SUPER STARS D'HAÏTI;https://www.youtube.com/results?search_query=SUPER STARS D'HAÏTI
SUPER TABOU COMBO;https://www.youtube.com/results?search_query=SUPER TABOU COMBO
SUPERSTARS;https://www.youtube.com/results?search_query=SUPERSTARS
SUPERSTARS all STARS;https://www.youtube.com/results?search_query=SUPERSTARS all STARS
SWEET SELECT;https://www.youtube.com/results?search_query=SWEET SELECT
SYMPHONIE ANGELIQUE;https://www.youtube.com/results?search_query=SYMPHONIE ANGELIQUE
SYSTEM BAND;https://www.youtube.com/results?search_query=SYSTEM BAND
SYSTEM BAND rencontre;https://www.youtube.com/results?search_query=SYSTEM BAND rencontre
COBRA BAND;https://www.youtube.com/results?search_query=COBRA BAND
SYSTEME 2000 &;https://www.youtube.com/results?search_query=SYSTEME 2000 &
les FRERES DEJEAN;https://www.youtube.com/results?search_query=les FRERES DEJEAN
SYSTEME 2000 &;https://www.youtube.com/results?search_query=SYSTEME 2000 &
VOLO VOLO;https://www.youtube.com/results?search_query=VOLO VOLO
SYSTEM'S 2000;https://www.youtube.com/results?search_query=SYSTEM'S 2000
TAH PAJJ;https://www.youtube.com/results?search_query=TAH PAJJ
TAKE 5;https://www.youtube.com/results?search_query=TAKE 5
TAMBOU RADA;https://www.youtube.com/results?search_query=TAMBOU RADA
TAM-TAM BAND;https://www.youtube.com/results?search_query=TAM-TAM BAND
TANBOU LIBETE;https://www.youtube.com/results?search_query=TANBOU LIBETE
TANPET;https://www.youtube.com/results?search_query=TANPET
TAPE FORCE &;https://www.youtube.com/results?search_query=TAPE FORCE &
les FRERES DEJEAN;https://www.youtube.com/results?search_query=les FRERES DEJEAN
TCHAKA KOMPA;https://www.youtube.com/results?search_query=TCHAKA KOMPA
TEKNIK BAND;https://www.youtube.com/results?search_query=TEKNIK BAND
TE SEK LA VA ROUZE;https://www.youtube.com/results?search_query=TE SEK LA VA ROUZE
TÉTRAPHONE ÉVANGÉLIQUE;https://www.youtube.com/results?search_query=TÉTRAPHONE ÉVANGÉLIQUE
THAMAD BAND;https://www.youtube.com/results?search_query=THAMAD BAND
THE BELLE CREOLE GROUP;https://www.youtube.com/results?search_query=THE BELLE CREOLE GROUP
THE BLACK <ELEVEL>;https://www.youtube.com/results?search_query=THE BLACK <ELEVEL>
THE BOOGALOO'S;https://www.youtube.com/results?search_query=THE BOOGALOO'S
THE CABANE;https://www.youtube.com/results?search_query=THE CABANE
CHOUCOUNE ENSEMBLE;https://www.youtube.com/results?search_query=CHOUCOUNE ENSEMBLE
THE HAÏTIAN BELLS;https://www.youtube.com/results?search_query=THE HAÏTIAN BELLS
THE HAPPY SINGERS;https://www.youtube.com/results?search_query=THE HAPPY SINGERS
THE ISLANDERS;https://www.youtube.com/results?search_query=THE ISLANDERS
THE MESSENGERS;https://www.youtube.com/results?search_query=THE MESSENGERS
THE MESSENGERS of HOPE;https://www.youtube.com/results?search_query=THE MESSENGERS of HOPE
THE PARTNERS;https://www.youtube.com/results?search_query=THE PARTNERS
TI CLAUDE;https://www.youtube.com/results?search_query=TI CLAUDE
TI CORN;https://www.youtube.com/results?search_query=TI CORN
TI CRANE;https://www.youtube.com/results?search_query=TI CRANE
TI JACQUES et son TROPICAL COMBO;https://www.youtube.com/results?search_query=TI JACQUES et son TROPICAL COMBO
TI NES SALVANT;https://www.youtube.com/results?search_query=TI NES SALVANT
TI PARIS & sa GUITARE;https://www.youtube.com/results?search_query=TI PARIS & sa GUITARE
TI PLUME & CIE;https://www.youtube.com/results?search_query=TI PLUME & CIE
TI PLUME & DADOU;https://www.youtube.com/results?search_query=TI PLUME & DADOU
TI PLUME & MACUMBE;https://www.youtube.com/results?search_query=TI PLUME & MACUMBE
TI POLIS;https://www.youtube.com/results?search_query=TI POLIS
TI RORO;https://www.youtube.com/results?search_query=TI RORO
TI YALE;https://www.youtube.com/results?search_query=TI YALE
TOM MALE;https://www.youtube.com/results?search_query=TOM MALE
TIPICA MOON;https://www.youtube.com/results?search_query=TIPICA MOON
TONY MOÏSE;https://www.youtube.com/results?search_query=TONY MOÏSE
TOP COMPAS D'HAITI - STAR COMBO;https://www.youtube.com/results?search_query=TOP COMPAS D'HAITI - STAR COMBO
TOP GYPS;https://www.youtube.com/results?search_query=TOP GYPS
TOP SHLEU;https://www.youtube.com/results?search_query=TOP SHLEU
TOP VICE;https://www.youtube.com/results?search_query=TOP VICE
TOTO BISSAINTHE;https://www.youtube.com/results?search_query=TOTO BISSAINTHE
TOTO NECESSITE;https://www.youtube.com/results?search_query=TOTO NECESSITE
TOTO "X" LARAQUE;https://www.youtube.com/results?search_query=TOTO "X" LARAQUE
TRAFIC;https://www.youtube.com/results?search_query=TRAFIC
TRIO SELECT;https://www.youtube.com/results?search_query=TRIO SELECT
TRIOMEC'S;https://www.youtube.com/results?search_query=TRIOMEC'S
TROPICAL COMBO;https://www.youtube.com/results?search_query=TROPICAL COMBO
TROPICAL QUINTET;https://www.youtube.com/results?search_query=TROPICAL QUINTET
TROPICAL SEXTET;https://www.youtube.com/results?search_query=TROPICAL SEXTET
TROPICAL SYSTEM;https://www.youtube.com/results?search_query=TROPICAL SYSTEM
TROPICANA;https://www.youtube.com/results?search_query=TROPICANA
TROUPE DUBREUS;https://www.youtube.com/results?search_query=TROUPE DUBREUS
T-TABOU;https://www.youtube.com/results?search_query=T-TABOU
TUCO BOUZI;https://www.youtube.com/results?search_query=TUCO BOUZI
TUCO BOUZI & TABASCO;https://www.youtube.com/results?search_query=TUCO BOUZI & TABASCO
T-VICE;https://www.youtube.com/results?search_query=T-VICE
ULYSSE;https://www.youtube.com/results?search_query=ULYSSE
UNCLE BOUQUI;https://www.youtube.com/results?search_query=UNCLE BOUQUI
UNIVERSEL CHANNEL 10;https://www.youtube.com/results?search_query=UNIVERSEL CHANNEL 10
U-TURN;https://www.youtube.com/results?search_query=U-TURN
V.M. BAND;https://www.youtube.com/results?search_query=V.M. BAND
VEGA BAND de PARIS;https://www.youtube.com/results?search_query=VEGA BAND de PARIS
VEGA BAND d'HAÏTI;https://www.youtube.com/results?search_query=VEGA BAND d'HAÏTI
VIDÉO BAND;https://www.youtube.com/results?search_query=VIDÉO BAND
VILLAIRE et L'AMJEC;https://www.youtube.com/results?search_query=VILLAIRE et L'AMJEC
VOIX DES PÉLERINS;https://www.youtube.com/results?search_query=VOIX DES PÉLERINS
VOLCAN des GONAÏVES;https://www.youtube.com/results?search_query=VOLCAN des GONAÏVES
VOLNY ORCHESTRA;https://www.youtube.com/results?search_query=VOLNY ORCHESTRA
VOLO VOLO;https://www.youtube.com/results?search_query=VOLO VOLO
WASHINGTON BAND EXPRESS;https://www.youtube.com/results?search_query=WASHINGTON BAND EXPRESS
WAWA ET LE VAUDOU D'HAÏTI;https://www.youtube.com/results?search_query=WAWA ET LE VAUDOU D'HAÏTI
WAWA ET RASIN KANGA;https://www.youtube.com/results?search_query=WAWA ET RASIN KANGA
WAWA ET SES AMIS;https://www.youtube.com/results?search_query=WAWA ET SES AMIS
WEBERT SICOT;https://www.youtube.com/results?search_query=WEBERT SICOT
WILBERT CHANCY;https://www.youtube.com/results?search_query=WILBERT CHANCY
WILKY FORTUNAT;https://www.youtube.com/results?search_query=WILKY FORTUNAT
WILLIAM SURIN;https://www.youtube.com/results?search_query=WILLIAM SURIN
WOWOLI;https://www.youtube.com/results?search_query=WOWOLI
X-FACTOR;https://www.youtube.com/results?search_query=X-FACTOR
XSUSSA;https://www.youtube.com/results?search_query=XSUSSA
YANICK COUPET;https://www.youtube.com/results?search_query=YANICK COUPET
YANICK ETIENNE;https://www.youtube.com/results?search_query=YANICK ETIENNE
YOLE & ANSY DEROSE;https://www.youtube.com/results?search_query=YOLE & ANSY DEROSE
YVES MARDICE;https://www.youtube.com/results?search_query=YVES MARDICE
YVES MARIE PAUL;https://www.youtube.com/results?search_query=YVES MARIE PAUL
YVON LOUISSAINT;https://www.youtube.com/results?search_query=YVON LOUISSAINT
YVON MONDESIR;https://www.youtube.com/results?search_query=YVON MONDESIR
ZEKLE;https://www.youtube.com/results?search_query=ZEKLE
ZENGLEN;https://www.youtube.com/results?search_query=ZENGLEN
ZIG ZAG;https://www.youtube.com/results?search_query=ZIG ZAG
ZIG-ZAG de FLORIDE;https://www.youtube.com/results?search_query=ZIG-ZAG de FLORIDE
ZINGLIN;https://www.youtube.com/results?search_query=ZINGLIN
ZOTOBRE;https://www.youtube.com/results?search_query=ZOTOBRE
ZOTOBRES;https://www.youtube.com/results?search_query=ZOTOBRES
